{
  "name": "monkeyc",
  "rules": {
    "source_file": {
      "type": "REPEAT",
      "content": {
        "type": "SYMBOL",
        "name": "_statement"
      }
    },
    "_statement": {
      "type": "CHOICE",
      "members": [
        {
          "type": "SYMBOL",
          "name": "_expression_statement"
        },
        {
          "type": "SYMBOL",
          "name": "_declaration_statement"
        }
      ]
    },
    "_expression_statement": {
      "type": "SEQ",
      "members": [
        {
          "type": "SYMBOL",
          "name": "_expression"
        },
        {
          "type": "STRING",
          "value": ";"
        }
      ]
    },
    "_expression": {
      "type": "CHOICE",
      "members": [
        {
          "type": "SYMBOL",
          "name": "identifier"
        },
        {
          "type": "SYMBOL",
          "name": "string_expression"
        },
        {
          "type": "SYMBOL",
          "name": "number_expression"
        },
        {
          "type": "SYMBOL",
          "name": "array_expression"
        },
        {
          "type": "SYMBOL",
          "name": "dictionary_expression"
        },
        {
          "type": "SYMBOL",
          "name": "option_dictionary_expression"
        },
        {
          "type": "SYMBOL",
          "name": "class_creation_expression"
        },
        {
          "type": "SYMBOL",
          "name": "attribute_expression"
        },
        {
          "type": "SYMBOL",
          "name": "binary_expression"
        },
        {
          "type": "SYMBOL",
          "name": "parenthesized_expression"
        },
        {
          "type": "SYMBOL",
          "name": "null_expression"
        },
        {
          "type": "SYMBOL",
          "name": "index_expression"
        },
        {
          "type": "SYMBOL",
          "name": "unary_expression"
        },
        {
          "type": "SYMBOL",
          "name": "update_expression"
        }
      ]
    },
    "_declaration_statement": {
      "type": "CHOICE",
      "members": [
        {
          "type": "SYMBOL",
          "name": "import_statement"
        },
        {
          "type": "SYMBOL",
          "name": "class_declaration"
        },
        {
          "type": "SYMBOL",
          "name": "function_declaration"
        },
        {
          "type": "SYMBOL",
          "name": "return_statement"
        },
        {
          "type": "SYMBOL",
          "name": "if_statement"
        },
        {
          "type": "SYMBOL",
          "name": "while_statement"
        },
        {
          "type": "SYMBOL",
          "name": "for_statement"
        },
        {
          "type": "SYMBOL",
          "name": "try_statement"
        },
        {
          "type": "SYMBOL",
          "name": "variable_declaration"
        },
        {
          "type": "SYMBOL",
          "name": "variable_assingment"
        }
      ]
    },
    "import_statement": {
      "type": "SEQ",
      "members": [
        {
          "type": "CHOICE",
          "members": [
            {
              "type": "STRING",
              "value": "using"
            },
            {
              "type": "STRING",
              "value": "import"
            }
          ]
        },
        {
          "type": "CHOICE",
          "members": [
            {
              "type": "SYMBOL",
              "name": "dotted_name"
            },
            {
              "type": "SYMBOL",
              "name": "aliased_import"
            }
          ]
        },
        {
          "type": "STRING",
          "value": ";"
        }
      ]
    },
    "return_statement": {
      "type": "SEQ",
      "members": [
        {
          "type": "CHOICE",
          "members": [
            {
              "type": "PREC_LEFT",
              "value": 0,
              "content": {
                "type": "SEQ",
                "members": [
                  {
                    "type": "STRING",
                    "value": "return"
                  },
                  {
                    "type": "SYMBOL",
                    "name": "_expression"
                  }
                ]
              }
            },
            {
              "type": "PREC",
              "value": -1,
              "content": {
                "type": "STRING",
                "value": "return"
              }
            }
          ]
        },
        {
          "type": "STRING",
          "value": ";"
        }
      ]
    },
    "aliased_import": {
      "type": "SEQ",
      "members": [
        {
          "type": "FIELD",
          "name": "name",
          "content": {
            "type": "SYMBOL",
            "name": "dotted_name"
          }
        },
        {
          "type": "STRING",
          "value": "as"
        },
        {
          "type": "FIELD",
          "name": "alias",
          "content": {
            "type": "SYMBOL",
            "name": "identifier"
          }
        }
      ]
    },
    "if_statement": {
      "type": "SEQ",
      "members": [
        {
          "type": "STRING",
          "value": "if"
        },
        {
          "type": "STRING",
          "value": "("
        },
        {
          "type": "FIELD",
          "name": "condition",
          "content": {
            "type": "SYMBOL",
            "name": "_expression"
          }
        },
        {
          "type": "STRING",
          "value": ")"
        },
        {
          "type": "FIELD",
          "name": "body",
          "content": {
            "type": "SYMBOL",
            "name": "block"
          }
        },
        {
          "type": "REPEAT",
          "content": {
            "type": "FIELD",
            "name": "alternative",
            "content": {
              "type": "SYMBOL",
              "name": "elif_clause"
            }
          }
        },
        {
          "type": "CHOICE",
          "members": [
            {
              "type": "FIELD",
              "name": "alternative",
              "content": {
                "type": "SYMBOL",
                "name": "else_clause"
              }
            },
            {
              "type": "BLANK"
            }
          ]
        }
      ]
    },
    "elif_clause": {
      "type": "SEQ",
      "members": [
        {
          "type": "STRING",
          "value": "else if"
        },
        {
          "type": "STRING",
          "value": "("
        },
        {
          "type": "FIELD",
          "name": "condition",
          "content": {
            "type": "SYMBOL",
            "name": "_expression"
          }
        },
        {
          "type": "STRING",
          "value": ")"
        },
        {
          "type": "FIELD",
          "name": "body",
          "content": {
            "type": "SYMBOL",
            "name": "block"
          }
        }
      ]
    },
    "else_clause": {
      "type": "SEQ",
      "members": [
        {
          "type": "STRING",
          "value": "else"
        },
        {
          "type": "FIELD",
          "name": "body",
          "content": {
            "type": "SYMBOL",
            "name": "block"
          }
        }
      ]
    },
    "for_statement": {
      "type": "SEQ",
      "members": [
        {
          "type": "STRING",
          "value": "for"
        },
        {
          "type": "STRING",
          "value": "("
        },
        {
          "type": "FIELD",
          "name": "initializer",
          "content": {
            "type": "SYMBOL",
            "name": "variable_declaration"
          }
        },
        {
          "type": "FIELD",
          "name": "condition",
          "content": {
            "type": "CHOICE",
            "members": [
              {
                "type": "SYMBOL",
                "name": "_expression"
              },
              {
                "type": "BLANK"
              }
            ]
          }
        },
        {
          "type": "STRING",
          "value": ";"
        },
        {
          "type": "FIELD",
          "name": "update",
          "content": {
            "type": "CHOICE",
            "members": [
              {
                "type": "SYMBOL",
                "name": "_expression"
              },
              {
                "type": "BLANK"
              }
            ]
          }
        },
        {
          "type": "STRING",
          "value": ")"
        },
        {
          "type": "SYMBOL",
          "name": "block"
        }
      ]
    },
    "while_statement": {
      "type": "SEQ",
      "members": [
        {
          "type": "STRING",
          "value": "while"
        },
        {
          "type": "STRING",
          "value": "("
        },
        {
          "type": "FIELD",
          "name": "condition",
          "content": {
            "type": "SYMBOL",
            "name": "_expression"
          }
        },
        {
          "type": "STRING",
          "value": ")"
        },
        {
          "type": "FIELD",
          "name": "body",
          "content": {
            "type": "SYMBOL",
            "name": "block"
          }
        }
      ]
    },
    "try_statement": {
      "type": "SEQ",
      "members": [
        {
          "type": "STRING",
          "value": "try"
        },
        {
          "type": "FIELD",
          "name": "body",
          "content": {
            "type": "SYMBOL",
            "name": "block"
          }
        },
        {
          "type": "CHOICE",
          "members": [
            {
              "type": "SEQ",
              "members": [
                {
                  "type": "REPEAT1",
                  "content": {
                    "type": "SYMBOL",
                    "name": "catch_clause"
                  }
                },
                {
                  "type": "CHOICE",
                  "members": [
                    {
                      "type": "SYMBOL",
                      "name": "finally_clause"
                    },
                    {
                      "type": "BLANK"
                    }
                  ]
                }
              ]
            },
            {
              "type": "SYMBOL",
              "name": "finally_clause"
            }
          ]
        }
      ]
    },
    "catch_clause": {
      "type": "SEQ",
      "members": [
        {
          "type": "STRING",
          "value": "catch"
        },
        {
          "type": "FIELD",
          "name": "error",
          "content": {
            "type": "SEQ",
            "members": [
              {
                "type": "STRING",
                "value": "("
              },
              {
                "type": "FIELD",
                "name": "error_name",
                "content": {
                  "type": "SYMBOL",
                  "name": "_expression"
                }
              },
              {
                "type": "CHOICE",
                "members": [
                  {
                    "type": "SEQ",
                    "members": [
                      {
                        "type": "STRING",
                        "value": "instanceof"
                      },
                      {
                        "type": "FIELD",
                        "name": "class",
                        "content": {
                          "type": "SYMBOL",
                          "name": "dotted_name"
                        }
                      }
                    ]
                  },
                  {
                    "type": "BLANK"
                  }
                ]
              },
              {
                "type": "STRING",
                "value": ")"
              }
            ]
          }
        },
        {
          "type": "SYMBOL",
          "name": "block"
        }
      ]
    },
    "finally_clause": {
      "type": "SEQ",
      "members": [
        {
          "type": "STRING",
          "value": "finally"
        },
        {
          "type": "FIELD",
          "name": "body",
          "content": {
            "type": "SYMBOL",
            "name": "block"
          }
        }
      ]
    },
    "class_declaration": {
      "type": "SEQ",
      "members": [
        {
          "type": "STRING",
          "value": "class"
        },
        {
          "type": "SYMBOL",
          "name": "identifier"
        },
        {
          "type": "CHOICE",
          "members": [
            {
              "type": "SEQ",
              "members": [
                {
                  "type": "STRING",
                  "value": "extends"
                },
                {
                  "type": "SYMBOL",
                  "name": "dotted_name"
                }
              ]
            },
            {
              "type": "BLANK"
            }
          ]
        },
        {
          "type": "SYMBOL",
          "name": "block"
        }
      ]
    },
    "function_declaration": {
      "type": "SEQ",
      "members": [
        {
          "type": "FIELD",
          "name": "modifier",
          "content": {
            "type": "CHOICE",
            "members": [
              {
                "type": "SYMBOL",
                "name": "_modifier"
              },
              {
                "type": "BLANK"
              }
            ]
          }
        },
        {
          "type": "STRING",
          "value": "function"
        },
        {
          "type": "SYMBOL",
          "name": "identifier"
        },
        {
          "type": "CHOICE",
          "members": [
            {
              "type": "SYMBOL",
              "name": "argument_list"
            },
            {
              "type": "SYMBOL",
              "name": "empty_argument_list"
            }
          ]
        },
        {
          "type": "CHOICE",
          "members": [
            {
              "type": "FIELD",
              "name": "return_type",
              "content": {
                "type": "SEQ",
                "members": [
                  {
                    "type": "STRING",
                    "value": "as"
                  },
                  {
                    "type": "SYMBOL",
                    "name": "identifier"
                  }
                ]
              }
            },
            {
              "type": "BLANK"
            }
          ]
        },
        {
          "type": "SYMBOL",
          "name": "block"
        }
      ]
    },
    "variable_declaration": {
      "type": "SEQ",
      "members": [
        {
          "type": "CHOICE",
          "members": [
            {
              "type": "SYMBOL",
              "name": "_modifier"
            },
            {
              "type": "BLANK"
            }
          ]
        },
        {
          "type": "STRING",
          "value": "var"
        },
        {
          "type": "SYMBOL",
          "name": "identifier"
        },
        {
          "type": "CHOICE",
          "members": [
            {
              "type": "SEQ",
              "members": [
                {
                  "type": "STRING",
                  "value": "="
                },
                {
                  "type": "FIELD",
                  "name": "value",
                  "content": {
                    "type": "SYMBOL",
                    "name": "_expression"
                  }
                }
              ]
            },
            {
              "type": "BLANK"
            }
          ]
        },
        {
          "type": "STRING",
          "value": ";"
        }
      ]
    },
    "variable_assingment": {
      "type": "SEQ",
      "members": [
        {
          "type": "SYMBOL",
          "name": "identifier"
        },
        {
          "type": "STRING",
          "value": "="
        },
        {
          "type": "SYMBOL",
          "name": "_expression"
        },
        {
          "type": "STRING",
          "value": ";"
        }
      ]
    },
    "argument": {
      "type": "SEQ",
      "members": [
        {
          "type": "SYMBOL",
          "name": "_expression"
        },
        {
          "type": "CHOICE",
          "members": [
            {
              "type": "SEQ",
              "members": [
                {
                  "type": "STRING",
                  "value": "as"
                },
                {
                  "type": "FIELD",
                  "name": "type",
                  "content": {
                    "type": "SYMBOL",
                    "name": "_type"
                  }
                }
              ]
            },
            {
              "type": "BLANK"
            }
          ]
        }
      ]
    },
    "empty_argument_list": {
      "type": "SEQ",
      "members": [
        {
          "type": "STRING",
          "value": "()"
        }
      ]
    },
    "argument_list": {
      "type": "SEQ",
      "members": [
        {
          "type": "STRING",
          "value": "("
        },
        {
          "type": "SYMBOL",
          "name": "argument"
        },
        {
          "type": "CHOICE",
          "members": [
            {
              "type": "REPEAT",
              "content": {
                "type": "SEQ",
                "members": [
                  {
                    "type": "STRING",
                    "value": ","
                  },
                  {
                    "type": "SYMBOL",
                    "name": "argument"
                  }
                ]
              }
            },
            {
              "type": "BLANK"
            }
          ]
        },
        {
          "type": "STRING",
          "value": ")"
        }
      ]
    },
    "_type": {
      "type": "CHOICE",
      "members": [
        {
          "type": "STRING",
          "value": "Boolean"
        },
        {
          "type": "STRING",
          "value": "String"
        },
        {
          "type": "STRING",
          "value": "Number"
        },
        {
          "type": "SYMBOL",
          "name": "identifier"
        }
      ]
    },
    "block": {
      "type": "SEQ",
      "members": [
        {
          "type": "STRING",
          "value": "{"
        },
        {
          "type": "REPEAT",
          "content": {
            "type": "SYMBOL",
            "name": "_statement"
          }
        },
        {
          "type": "STRING",
          "value": "}"
        }
      ]
    },
    "null_expression": {
      "type": "STRING",
      "value": "null"
    },
    "string_expression": {
      "type": "SEQ",
      "members": [
        {
          "type": "STRING",
          "value": "\""
        },
        {
          "type": "REPEAT",
          "content": {
            "type": "CHOICE",
            "members": [
              {
                "type": "IMMEDIATE_TOKEN",
                "content": {
                  "type": "PREC",
                  "value": 1,
                  "content": {
                    "type": "PATTERN",
                    "value": "[^\\\\\"\\n]+"
                  }
                }
              },
              {
                "type": "SYMBOL",
                "name": "escape_sequence"
              }
            ]
          }
        },
        {
          "type": "STRING",
          "value": "\""
        }
      ]
    },
    "number_expression": {
      "type": "PATTERN",
      "value": "\\d+"
    },
    "binary_expression": {
      "type": "CHOICE",
      "members": [
        {
          "type": "PREC_LEFT",
          "value": 3,
          "content": {
            "type": "SEQ",
            "members": [
              {
                "type": "FIELD",
                "name": "left",
                "content": {
                  "type": "SYMBOL",
                  "name": "_expression"
                }
              },
              {
                "type": "FIELD",
                "name": "operator",
                "content": {
                  "type": "STRING",
                  "value": "&&"
                }
              },
              {
                "type": "FIELD",
                "name": "right",
                "content": {
                  "type": "SYMBOL",
                  "name": "_expression"
                }
              }
            ]
          }
        },
        {
          "type": "PREC_LEFT",
          "value": 2,
          "content": {
            "type": "SEQ",
            "members": [
              {
                "type": "FIELD",
                "name": "left",
                "content": {
                  "type": "SYMBOL",
                  "name": "_expression"
                }
              },
              {
                "type": "FIELD",
                "name": "operator",
                "content": {
                  "type": "STRING",
                  "value": "||"
                }
              },
              {
                "type": "FIELD",
                "name": "right",
                "content": {
                  "type": "SYMBOL",
                  "name": "_expression"
                }
              }
            ]
          }
        },
        {
          "type": "PREC_LEFT",
          "value": 7,
          "content": {
            "type": "SEQ",
            "members": [
              {
                "type": "FIELD",
                "name": "left",
                "content": {
                  "type": "SYMBOL",
                  "name": "_expression"
                }
              },
              {
                "type": "FIELD",
                "name": "operator",
                "content": {
                  "type": "STRING",
                  "value": "&"
                }
              },
              {
                "type": "FIELD",
                "name": "right",
                "content": {
                  "type": "SYMBOL",
                  "name": "_expression"
                }
              }
            ]
          }
        },
        {
          "type": "PREC_LEFT",
          "value": 5,
          "content": {
            "type": "SEQ",
            "members": [
              {
                "type": "FIELD",
                "name": "left",
                "content": {
                  "type": "SYMBOL",
                  "name": "_expression"
                }
              },
              {
                "type": "FIELD",
                "name": "operator",
                "content": {
                  "type": "STRING",
                  "value": "|"
                }
              },
              {
                "type": "FIELD",
                "name": "right",
                "content": {
                  "type": "SYMBOL",
                  "name": "_expression"
                }
              }
            ]
          }
        },
        {
          "type": "PREC_LEFT",
          "value": 6,
          "content": {
            "type": "SEQ",
            "members": [
              {
                "type": "FIELD",
                "name": "left",
                "content": {
                  "type": "SYMBOL",
                  "name": "_expression"
                }
              },
              {
                "type": "FIELD",
                "name": "operator",
                "content": {
                  "type": "STRING",
                  "value": "^"
                }
              },
              {
                "type": "FIELD",
                "name": "right",
                "content": {
                  "type": "SYMBOL",
                  "name": "_expression"
                }
              }
            ]
          }
        },
        {
          "type": "PREC_LEFT",
          "value": 4,
          "content": {
            "type": "SEQ",
            "members": [
              {
                "type": "FIELD",
                "name": "left",
                "content": {
                  "type": "SYMBOL",
                  "name": "_expression"
                }
              },
              {
                "type": "FIELD",
                "name": "operator",
                "content": {
                  "type": "CHOICE",
                  "members": [
                    {
                      "type": "STRING",
                      "value": "=="
                    },
                    {
                      "type": "STRING",
                      "value": "!="
                    },
                    {
                      "type": "STRING",
                      "value": "<"
                    },
                    {
                      "type": "STRING",
                      "value": "<="
                    },
                    {
                      "type": "STRING",
                      "value": ">"
                    },
                    {
                      "type": "STRING",
                      "value": ">="
                    }
                  ]
                }
              },
              {
                "type": "FIELD",
                "name": "right",
                "content": {
                  "type": "SYMBOL",
                  "name": "_expression"
                }
              }
            ]
          }
        },
        {
          "type": "PREC_LEFT",
          "value": 8,
          "content": {
            "type": "SEQ",
            "members": [
              {
                "type": "FIELD",
                "name": "left",
                "content": {
                  "type": "SYMBOL",
                  "name": "_expression"
                }
              },
              {
                "type": "FIELD",
                "name": "operator",
                "content": {
                  "type": "CHOICE",
                  "members": [
                    {
                      "type": "STRING",
                      "value": "<<"
                    },
                    {
                      "type": "STRING",
                      "value": ">>"
                    }
                  ]
                }
              },
              {
                "type": "FIELD",
                "name": "right",
                "content": {
                  "type": "SYMBOL",
                  "name": "_expression"
                }
              }
            ]
          }
        },
        {
          "type": "PREC_LEFT",
          "value": 9,
          "content": {
            "type": "SEQ",
            "members": [
              {
                "type": "FIELD",
                "name": "left",
                "content": {
                  "type": "SYMBOL",
                  "name": "_expression"
                }
              },
              {
                "type": "FIELD",
                "name": "operator",
                "content": {
                  "type": "CHOICE",
                  "members": [
                    {
                      "type": "STRING",
                      "value": "+"
                    },
                    {
                      "type": "STRING",
                      "value": "-"
                    }
                  ]
                }
              },
              {
                "type": "FIELD",
                "name": "right",
                "content": {
                  "type": "SYMBOL",
                  "name": "_expression"
                }
              }
            ]
          }
        },
        {
          "type": "PREC_LEFT",
          "value": 10,
          "content": {
            "type": "SEQ",
            "members": [
              {
                "type": "FIELD",
                "name": "left",
                "content": {
                  "type": "SYMBOL",
                  "name": "_expression"
                }
              },
              {
                "type": "FIELD",
                "name": "operator",
                "content": {
                  "type": "CHOICE",
                  "members": [
                    {
                      "type": "STRING",
                      "value": "*"
                    },
                    {
                      "type": "STRING",
                      "value": "/"
                    },
                    {
                      "type": "STRING",
                      "value": "%"
                    }
                  ]
                }
              },
              {
                "type": "FIELD",
                "name": "right",
                "content": {
                  "type": "SYMBOL",
                  "name": "_expression"
                }
              }
            ]
          }
        }
      ]
    },
    "unary_expression": {
      "type": "PREC_LEFT",
      "value": 11,
      "content": {
        "type": "SEQ",
        "members": [
          {
            "type": "FIELD",
            "name": "operator",
            "content": {
              "type": "CHOICE",
              "members": [
                {
                  "type": "STRING",
                  "value": "!"
                },
                {
                  "type": "STRING",
                  "value": "~"
                },
                {
                  "type": "STRING",
                  "value": "-"
                },
                {
                  "type": "STRING",
                  "value": "+"
                }
              ]
            }
          },
          {
            "type": "FIELD",
            "name": "argument",
            "content": {
              "type": "SYMBOL",
              "name": "_expression"
            }
          }
        ]
      }
    },
    "update_expression": {
      "type": "PREC_RIGHT",
      "value": 11,
      "content": {
        "type": "CHOICE",
        "members": [
          {
            "type": "SEQ",
            "members": [
              {
                "type": "FIELD",
                "name": "operator",
                "content": {
                  "type": "CHOICE",
                  "members": [
                    {
                      "type": "STRING",
                      "value": "--"
                    },
                    {
                      "type": "STRING",
                      "value": "++"
                    }
                  ]
                }
              },
              {
                "type": "FIELD",
                "name": "argument",
                "content": {
                  "type": "SYMBOL",
                  "name": "_expression"
                }
              }
            ]
          },
          {
            "type": "SEQ",
            "members": [
              {
                "type": "FIELD",
                "name": "argument",
                "content": {
                  "type": "SYMBOL",
                  "name": "_expression"
                }
              },
              {
                "type": "FIELD",
                "name": "operator",
                "content": {
                  "type": "CHOICE",
                  "members": [
                    {
                      "type": "STRING",
                      "value": "--"
                    },
                    {
                      "type": "STRING",
                      "value": "++"
                    }
                  ]
                }
              }
            ]
          }
        ]
      }
    },
    "option_dictionary_expression": {
      "type": "SEQ",
      "members": [
        {
          "type": "STRING",
          "value": "{"
        },
        {
          "type": "REPEAT1",
          "content": {
            "type": "SEQ",
            "members": [
              {
                "type": "STRING",
                "value": ":"
              },
              {
                "type": "SYMBOL",
                "name": "identifier"
              },
              {
                "type": "STRING",
                "value": "=>"
              },
              {
                "type": "SYMBOL",
                "name": "_expression"
              },
              {
                "type": "CHOICE",
                "members": [
                  {
                    "type": "STRING",
                    "value": ","
                  },
                  {
                    "type": "BLANK"
                  }
                ]
              }
            ]
          }
        },
        {
          "type": "STRING",
          "value": "}"
        }
      ]
    },
    "dictionary_expression": {
      "type": "SEQ",
      "members": [
        {
          "type": "STRING",
          "value": "{"
        },
        {
          "type": "REPEAT1",
          "content": {
            "type": "SEQ",
            "members": [
              {
                "type": "SYMBOL",
                "name": "string_expression"
              },
              {
                "type": "STRING",
                "value": "=>"
              },
              {
                "type": "SYMBOL",
                "name": "_expression"
              },
              {
                "type": "CHOICE",
                "members": [
                  {
                    "type": "STRING",
                    "value": ","
                  },
                  {
                    "type": "BLANK"
                  }
                ]
              }
            ]
          }
        },
        {
          "type": "STRING",
          "value": "}"
        }
      ]
    },
    "array_expression": {
      "type": "SEQ",
      "members": [
        {
          "type": "STRING",
          "value": "["
        },
        {
          "type": "SYMBOL",
          "name": "_expression"
        },
        {
          "type": "CHOICE",
          "members": [
            {
              "type": "REPEAT",
              "content": {
                "type": "SEQ",
                "members": [
                  {
                    "type": "STRING",
                    "value": ","
                  },
                  {
                    "type": "SYMBOL",
                    "name": "_expression"
                  }
                ]
              }
            },
            {
              "type": "BLANK"
            }
          ]
        },
        {
          "type": "STRING",
          "value": "]"
        }
      ]
    },
    "attribute_expression": {
      "type": "SEQ",
      "members": [
        {
          "type": "FIELD",
          "name": "object",
          "content": {
            "type": "SYMBOL",
            "name": "_expression"
          }
        },
        {
          "type": "STRING",
          "value": "."
        },
        {
          "type": "FIELD",
          "name": "attribute",
          "content": {
            "type": "CHOICE",
            "members": [
              {
                "type": "SYMBOL",
                "name": "identifier"
              },
              {
                "type": "SYMBOL",
                "name": "call"
              }
            ]
          }
        }
      ]
    },
    "index_expression": {
      "type": "PREC",
      "value": 14,
      "content": {
        "type": "SEQ",
        "members": [
          {
            "type": "SYMBOL",
            "name": "_expression"
          },
          {
            "type": "STRING",
            "value": "["
          },
          {
            "type": "SYMBOL",
            "name": "_expression"
          },
          {
            "type": "STRING",
            "value": "]"
          }
        ]
      }
    },
    "class_creation_expression": {
      "type": "SEQ",
      "members": [
        {
          "type": "STRING",
          "value": "new"
        },
        {
          "type": "SYMBOL",
          "name": "identifier"
        },
        {
          "type": "CHOICE",
          "members": [
            {
              "type": "STRING",
              "value": "()"
            },
            {
              "type": "SYMBOL",
              "name": "argument_list"
            }
          ]
        }
      ]
    },
    "call": {
      "type": "PREC",
      "value": 14,
      "content": {
        "type": "SEQ",
        "members": [
          {
            "type": "FIELD",
            "name": "function",
            "content": {
              "type": "SYMBOL",
              "name": "identifier"
            }
          },
          {
            "type": "FIELD",
            "name": "arguments",
            "content": {
              "type": "CHOICE",
              "members": [
                {
                  "type": "SYMBOL",
                  "name": "argument_list"
                },
                {
                  "type": "SYMBOL",
                  "name": "empty_argument_list"
                }
              ]
            }
          }
        ]
      }
    },
    "parenthesized_expression": {
      "type": "PREC",
      "value": 1,
      "content": {
        "type": "SEQ",
        "members": [
          {
            "type": "STRING",
            "value": "("
          },
          {
            "type": "SYMBOL",
            "name": "_expression"
          },
          {
            "type": "STRING",
            "value": ")"
          }
        ]
      }
    },
    "escape_sequence": {
      "type": "IMMEDIATE_TOKEN",
      "content": {
        "type": "SEQ",
        "members": [
          {
            "type": "STRING",
            "value": "\\"
          },
          {
            "type": "CHOICE",
            "members": [
              {
                "type": "PATTERN",
                "value": "[^xu]"
              },
              {
                "type": "PATTERN",
                "value": "u[0-9a-fA-F]{4}"
              },
              {
                "type": "PATTERN",
                "value": "u{[0-9a-fA-F]+}"
              },
              {
                "type": "PATTERN",
                "value": "x[0-9a-fA-F]{2}"
              }
            ]
          }
        ]
      }
    },
    "_modifier": {
      "type": "CHOICE",
      "members": [
        {
          "type": "STRING",
          "value": "public"
        },
        {
          "type": "STRING",
          "value": "private"
        },
        {
          "type": "STRING",
          "value": "protected"
        }
      ]
    },
    "identifier": {
      "type": "PATTERN",
      "value": "[_\\p{XID_Start}][_\\p{XID_Continue}]*"
    },
    "dotted_name": {
      "type": "SEQ",
      "members": [
        {
          "type": "SYMBOL",
          "name": "identifier"
        },
        {
          "type": "CHOICE",
          "members": [
            {
              "type": "REPEAT",
              "content": {
                "type": "SEQ",
                "members": [
                  {
                    "type": "STRING",
                    "value": "."
                  },
                  {
                    "type": "SYMBOL",
                    "name": "identifier"
                  }
                ]
              }
            },
            {
              "type": "BLANK"
            }
          ]
        }
      ]
    },
    "comment": {
      "type": "TOKEN",
      "content": {
        "type": "CHOICE",
        "members": [
          {
            "type": "SEQ",
            "members": [
              {
                "type": "STRING",
                "value": "//"
              },
              {
                "type": "PATTERN",
                "value": "(\\\\(.|\\r?\\n)|[^\\\\\\n])*"
              }
            ]
          },
          {
            "type": "SEQ",
            "members": [
              {
                "type": "STRING",
                "value": "/*"
              },
              {
                "type": "PATTERN",
                "value": "[^*]*\\*+([^/*][^*]*\\*+)*"
              },
              {
                "type": "STRING",
                "value": "/"
              }
            ]
          }
        ]
      }
    }
  },
  "extras": [
    {
      "type": "PATTERN",
      "value": "\\s|\\\\\\r?\\n"
    },
    {
      "type": "SYMBOL",
      "name": "comment"
    }
  ],
  "conflicts": [],
  "precedences": [],
  "externals": [],
  "inline": [],
  "supertypes": []
}

