[
  {
    "type": "aliased_import",
    "named": true,
    "fields": {
      "alias": {
        "multiple": false,
        "required": true,
        "types": [
          {
            "type": "identifier",
            "named": true
          }
        ]
      },
      "name": {
        "multiple": false,
        "required": true,
        "types": [
          {
            "type": "dotted_name",
            "named": true
          }
        ]
      }
    }
  },
  {
    "type": "argument",
    "named": true,
    "fields": {
      "type": {
        "multiple": false,
        "required": false,
        "types": [
          {
            "type": "Boolean",
            "named": false
          },
          {
            "type": "Number",
            "named": false
          },
          {
            "type": "String",
            "named": false
          },
          {
            "type": "identifier",
            "named": true
          }
        ]
      }
    },
    "children": {
      "multiple": false,
      "required": true,
      "types": [
        {
          "type": "array_expression",
          "named": true
        },
        {
          "type": "attribute_expression",
          "named": true
        },
        {
          "type": "binary_expression",
          "named": true
        },
        {
          "type": "class_creation_expression",
          "named": true
        },
        {
          "type": "dictionary_expression",
          "named": true
        },
        {
          "type": "identifier",
          "named": true
        },
        {
          "type": "index_expression",
          "named": true
        },
        {
          "type": "null_expression",
          "named": true
        },
        {
          "type": "number_expression",
          "named": true
        },
        {
          "type": "option_dictionary_expression",
          "named": true
        },
        {
          "type": "parenthesized_expression",
          "named": true
        },
        {
          "type": "string_expression",
          "named": true
        },
        {
          "type": "unary_expression",
          "named": true
        },
        {
          "type": "update_expression",
          "named": true
        }
      ]
    }
  },
  {
    "type": "argument_list",
    "named": true,
    "fields": {},
    "children": {
      "multiple": true,
      "required": true,
      "types": [
        {
          "type": "argument",
          "named": true
        }
      ]
    }
  },
  {
    "type": "array_expression",
    "named": true,
    "fields": {},
    "children": {
      "multiple": true,
      "required": true,
      "types": [
        {
          "type": "array_expression",
          "named": true
        },
        {
          "type": "attribute_expression",
          "named": true
        },
        {
          "type": "binary_expression",
          "named": true
        },
        {
          "type": "class_creation_expression",
          "named": true
        },
        {
          "type": "dictionary_expression",
          "named": true
        },
        {
          "type": "identifier",
          "named": true
        },
        {
          "type": "index_expression",
          "named": true
        },
        {
          "type": "null_expression",
          "named": true
        },
        {
          "type": "number_expression",
          "named": true
        },
        {
          "type": "option_dictionary_expression",
          "named": true
        },
        {
          "type": "parenthesized_expression",
          "named": true
        },
        {
          "type": "string_expression",
          "named": true
        },
        {
          "type": "unary_expression",
          "named": true
        },
        {
          "type": "update_expression",
          "named": true
        }
      ]
    }
  },
  {
    "type": "attribute_expression",
    "named": true,
    "fields": {
      "attribute": {
        "multiple": false,
        "required": true,
        "types": [
          {
            "type": "call",
            "named": true
          },
          {
            "type": "identifier",
            "named": true
          }
        ]
      },
      "object": {
        "multiple": false,
        "required": true,
        "types": [
          {
            "type": "array_expression",
            "named": true
          },
          {
            "type": "attribute_expression",
            "named": true
          },
          {
            "type": "binary_expression",
            "named": true
          },
          {
            "type": "class_creation_expression",
            "named": true
          },
          {
            "type": "dictionary_expression",
            "named": true
          },
          {
            "type": "identifier",
            "named": true
          },
          {
            "type": "index_expression",
            "named": true
          },
          {
            "type": "null_expression",
            "named": true
          },
          {
            "type": "number_expression",
            "named": true
          },
          {
            "type": "option_dictionary_expression",
            "named": true
          },
          {
            "type": "parenthesized_expression",
            "named": true
          },
          {
            "type": "string_expression",
            "named": true
          },
          {
            "type": "unary_expression",
            "named": true
          },
          {
            "type": "update_expression",
            "named": true
          }
        ]
      }
    }
  },
  {
    "type": "binary_expression",
    "named": true,
    "fields": {
      "left": {
        "multiple": false,
        "required": true,
        "types": [
          {
            "type": "array_expression",
            "named": true
          },
          {
            "type": "attribute_expression",
            "named": true
          },
          {
            "type": "binary_expression",
            "named": true
          },
          {
            "type": "class_creation_expression",
            "named": true
          },
          {
            "type": "dictionary_expression",
            "named": true
          },
          {
            "type": "identifier",
            "named": true
          },
          {
            "type": "index_expression",
            "named": true
          },
          {
            "type": "null_expression",
            "named": true
          },
          {
            "type": "number_expression",
            "named": true
          },
          {
            "type": "option_dictionary_expression",
            "named": true
          },
          {
            "type": "parenthesized_expression",
            "named": true
          },
          {
            "type": "string_expression",
            "named": true
          },
          {
            "type": "unary_expression",
            "named": true
          },
          {
            "type": "update_expression",
            "named": true
          }
        ]
      },
      "operator": {
        "multiple": false,
        "required": true,
        "types": [
          {
            "type": "!=",
            "named": false
          },
          {
            "type": "%",
            "named": false
          },
          {
            "type": "&",
            "named": false
          },
          {
            "type": "&&",
            "named": false
          },
          {
            "type": "*",
            "named": false
          },
          {
            "type": "+",
            "named": false
          },
          {
            "type": "-",
            "named": false
          },
          {
            "type": "/",
            "named": false
          },
          {
            "type": "<",
            "named": false
          },
          {
            "type": "<<",
            "named": false
          },
          {
            "type": "<=",
            "named": false
          },
          {
            "type": "==",
            "named": false
          },
          {
            "type": ">",
            "named": false
          },
          {
            "type": ">=",
            "named": false
          },
          {
            "type": ">>",
            "named": false
          },
          {
            "type": "^",
            "named": false
          },
          {
            "type": "|",
            "named": false
          },
          {
            "type": "||",
            "named": false
          }
        ]
      },
      "right": {
        "multiple": false,
        "required": true,
        "types": [
          {
            "type": "array_expression",
            "named": true
          },
          {
            "type": "attribute_expression",
            "named": true
          },
          {
            "type": "binary_expression",
            "named": true
          },
          {
            "type": "class_creation_expression",
            "named": true
          },
          {
            "type": "dictionary_expression",
            "named": true
          },
          {
            "type": "identifier",
            "named": true
          },
          {
            "type": "index_expression",
            "named": true
          },
          {
            "type": "null_expression",
            "named": true
          },
          {
            "type": "number_expression",
            "named": true
          },
          {
            "type": "option_dictionary_expression",
            "named": true
          },
          {
            "type": "parenthesized_expression",
            "named": true
          },
          {
            "type": "string_expression",
            "named": true
          },
          {
            "type": "unary_expression",
            "named": true
          },
          {
            "type": "update_expression",
            "named": true
          }
        ]
      }
    }
  },
  {
    "type": "block",
    "named": true,
    "fields": {},
    "children": {
      "multiple": true,
      "required": false,
      "types": [
        {
          "type": "array_expression",
          "named": true
        },
        {
          "type": "attribute_expression",
          "named": true
        },
        {
          "type": "binary_expression",
          "named": true
        },
        {
          "type": "class_creation_expression",
          "named": true
        },
        {
          "type": "class_declaration",
          "named": true
        },
        {
          "type": "dictionary_expression",
          "named": true
        },
        {
          "type": "for_statement",
          "named": true
        },
        {
          "type": "function_declaration",
          "named": true
        },
        {
          "type": "identifier",
          "named": true
        },
        {
          "type": "if_statement",
          "named": true
        },
        {
          "type": "import_statement",
          "named": true
        },
        {
          "type": "index_expression",
          "named": true
        },
        {
          "type": "null_expression",
          "named": true
        },
        {
          "type": "number_expression",
          "named": true
        },
        {
          "type": "option_dictionary_expression",
          "named": true
        },
        {
          "type": "parenthesized_expression",
          "named": true
        },
        {
          "type": "return_statement",
          "named": true
        },
        {
          "type": "string_expression",
          "named": true
        },
        {
          "type": "try_statement",
          "named": true
        },
        {
          "type": "unary_expression",
          "named": true
        },
        {
          "type": "update_expression",
          "named": true
        },
        {
          "type": "variable_assingment",
          "named": true
        },
        {
          "type": "variable_declaration",
          "named": true
        },
        {
          "type": "while_statement",
          "named": true
        }
      ]
    }
  },
  {
    "type": "call",
    "named": true,
    "fields": {
      "arguments": {
        "multiple": false,
        "required": true,
        "types": [
          {
            "type": "argument_list",
            "named": true
          },
          {
            "type": "empty_argument_list",
            "named": true
          }
        ]
      },
      "function": {
        "multiple": false,
        "required": true,
        "types": [
          {
            "type": "identifier",
            "named": true
          }
        ]
      }
    }
  },
  {
    "type": "catch_clause",
    "named": true,
    "fields": {
      "class": {
        "multiple": false,
        "required": false,
        "types": [
          {
            "type": "dotted_name",
            "named": true
          }
        ]
      },
      "error": {
        "multiple": true,
        "required": true,
        "types": [
          {
            "type": "(",
            "named": false
          },
          {
            "type": ")",
            "named": false
          },
          {
            "type": "instanceof",
            "named": false
          }
        ]
      },
      "error_name": {
        "multiple": false,
        "required": true,
        "types": [
          {
            "type": "array_expression",
            "named": true
          },
          {
            "type": "attribute_expression",
            "named": true
          },
          {
            "type": "binary_expression",
            "named": true
          },
          {
            "type": "class_creation_expression",
            "named": true
          },
          {
            "type": "dictionary_expression",
            "named": true
          },
          {
            "type": "identifier",
            "named": true
          },
          {
            "type": "index_expression",
            "named": true
          },
          {
            "type": "null_expression",
            "named": true
          },
          {
            "type": "number_expression",
            "named": true
          },
          {
            "type": "option_dictionary_expression",
            "named": true
          },
          {
            "type": "parenthesized_expression",
            "named": true
          },
          {
            "type": "string_expression",
            "named": true
          },
          {
            "type": "unary_expression",
            "named": true
          },
          {
            "type": "update_expression",
            "named": true
          }
        ]
      }
    },
    "children": {
      "multiple": false,
      "required": true,
      "types": [
        {
          "type": "block",
          "named": true
        }
      ]
    }
  },
  {
    "type": "class_creation_expression",
    "named": true,
    "fields": {},
    "children": {
      "multiple": true,
      "required": true,
      "types": [
        {
          "type": "argument_list",
          "named": true
        },
        {
          "type": "identifier",
          "named": true
        }
      ]
    }
  },
  {
    "type": "class_declaration",
    "named": true,
    "fields": {},
    "children": {
      "multiple": true,
      "required": true,
      "types": [
        {
          "type": "block",
          "named": true
        },
        {
          "type": "dotted_name",
          "named": true
        },
        {
          "type": "identifier",
          "named": true
        }
      ]
    }
  },
  {
    "type": "dictionary_expression",
    "named": true,
    "fields": {},
    "children": {
      "multiple": true,
      "required": true,
      "types": [
        {
          "type": "array_expression",
          "named": true
        },
        {
          "type": "attribute_expression",
          "named": true
        },
        {
          "type": "binary_expression",
          "named": true
        },
        {
          "type": "class_creation_expression",
          "named": true
        },
        {
          "type": "dictionary_expression",
          "named": true
        },
        {
          "type": "identifier",
          "named": true
        },
        {
          "type": "index_expression",
          "named": true
        },
        {
          "type": "null_expression",
          "named": true
        },
        {
          "type": "number_expression",
          "named": true
        },
        {
          "type": "option_dictionary_expression",
          "named": true
        },
        {
          "type": "parenthesized_expression",
          "named": true
        },
        {
          "type": "string_expression",
          "named": true
        },
        {
          "type": "unary_expression",
          "named": true
        },
        {
          "type": "update_expression",
          "named": true
        }
      ]
    }
  },
  {
    "type": "dotted_name",
    "named": true,
    "fields": {},
    "children": {
      "multiple": true,
      "required": true,
      "types": [
        {
          "type": "identifier",
          "named": true
        }
      ]
    }
  },
  {
    "type": "elif_clause",
    "named": true,
    "fields": {
      "body": {
        "multiple": false,
        "required": true,
        "types": [
          {
            "type": "block",
            "named": true
          }
        ]
      },
      "condition": {
        "multiple": false,
        "required": true,
        "types": [
          {
            "type": "array_expression",
            "named": true
          },
          {
            "type": "attribute_expression",
            "named": true
          },
          {
            "type": "binary_expression",
            "named": true
          },
          {
            "type": "class_creation_expression",
            "named": true
          },
          {
            "type": "dictionary_expression",
            "named": true
          },
          {
            "type": "identifier",
            "named": true
          },
          {
            "type": "index_expression",
            "named": true
          },
          {
            "type": "null_expression",
            "named": true
          },
          {
            "type": "number_expression",
            "named": true
          },
          {
            "type": "option_dictionary_expression",
            "named": true
          },
          {
            "type": "parenthesized_expression",
            "named": true
          },
          {
            "type": "string_expression",
            "named": true
          },
          {
            "type": "unary_expression",
            "named": true
          },
          {
            "type": "update_expression",
            "named": true
          }
        ]
      }
    }
  },
  {
    "type": "else_clause",
    "named": true,
    "fields": {
      "body": {
        "multiple": false,
        "required": true,
        "types": [
          {
            "type": "block",
            "named": true
          }
        ]
      }
    }
  },
  {
    "type": "empty_argument_list",
    "named": true,
    "fields": {}
  },
  {
    "type": "finally_clause",
    "named": true,
    "fields": {
      "body": {
        "multiple": false,
        "required": true,
        "types": [
          {
            "type": "block",
            "named": true
          }
        ]
      }
    }
  },
  {
    "type": "for_statement",
    "named": true,
    "fields": {
      "condition": {
        "multiple": false,
        "required": false,
        "types": [
          {
            "type": "array_expression",
            "named": true
          },
          {
            "type": "attribute_expression",
            "named": true
          },
          {
            "type": "binary_expression",
            "named": true
          },
          {
            "type": "class_creation_expression",
            "named": true
          },
          {
            "type": "dictionary_expression",
            "named": true
          },
          {
            "type": "identifier",
            "named": true
          },
          {
            "type": "index_expression",
            "named": true
          },
          {
            "type": "null_expression",
            "named": true
          },
          {
            "type": "number_expression",
            "named": true
          },
          {
            "type": "option_dictionary_expression",
            "named": true
          },
          {
            "type": "parenthesized_expression",
            "named": true
          },
          {
            "type": "string_expression",
            "named": true
          },
          {
            "type": "unary_expression",
            "named": true
          },
          {
            "type": "update_expression",
            "named": true
          }
        ]
      },
      "initializer": {
        "multiple": false,
        "required": true,
        "types": [
          {
            "type": "variable_declaration",
            "named": true
          }
        ]
      },
      "update": {
        "multiple": false,
        "required": false,
        "types": [
          {
            "type": "array_expression",
            "named": true
          },
          {
            "type": "attribute_expression",
            "named": true
          },
          {
            "type": "binary_expression",
            "named": true
          },
          {
            "type": "class_creation_expression",
            "named": true
          },
          {
            "type": "dictionary_expression",
            "named": true
          },
          {
            "type": "identifier",
            "named": true
          },
          {
            "type": "index_expression",
            "named": true
          },
          {
            "type": "null_expression",
            "named": true
          },
          {
            "type": "number_expression",
            "named": true
          },
          {
            "type": "option_dictionary_expression",
            "named": true
          },
          {
            "type": "parenthesized_expression",
            "named": true
          },
          {
            "type": "string_expression",
            "named": true
          },
          {
            "type": "unary_expression",
            "named": true
          },
          {
            "type": "update_expression",
            "named": true
          }
        ]
      }
    },
    "children": {
      "multiple": false,
      "required": true,
      "types": [
        {
          "type": "block",
          "named": true
        }
      ]
    }
  },
  {
    "type": "function_declaration",
    "named": true,
    "fields": {
      "modifier": {
        "multiple": false,
        "required": false,
        "types": [
          {
            "type": "private",
            "named": false
          },
          {
            "type": "protected",
            "named": false
          },
          {
            "type": "public",
            "named": false
          }
        ]
      },
      "return_type": {
        "multiple": true,
        "required": false,
        "types": [
          {
            "type": "as",
            "named": false
          },
          {
            "type": "identifier",
            "named": true
          }
        ]
      }
    },
    "children": {
      "multiple": true,
      "required": true,
      "types": [
        {
          "type": "argument_list",
          "named": true
        },
        {
          "type": "block",
          "named": true
        },
        {
          "type": "empty_argument_list",
          "named": true
        },
        {
          "type": "identifier",
          "named": true
        }
      ]
    }
  },
  {
    "type": "if_statement",
    "named": true,
    "fields": {
      "alternative": {
        "multiple": true,
        "required": false,
        "types": [
          {
            "type": "elif_clause",
            "named": true
          },
          {
            "type": "else_clause",
            "named": true
          }
        ]
      },
      "body": {
        "multiple": false,
        "required": true,
        "types": [
          {
            "type": "block",
            "named": true
          }
        ]
      },
      "condition": {
        "multiple": false,
        "required": true,
        "types": [
          {
            "type": "array_expression",
            "named": true
          },
          {
            "type": "attribute_expression",
            "named": true
          },
          {
            "type": "binary_expression",
            "named": true
          },
          {
            "type": "class_creation_expression",
            "named": true
          },
          {
            "type": "dictionary_expression",
            "named": true
          },
          {
            "type": "identifier",
            "named": true
          },
          {
            "type": "index_expression",
            "named": true
          },
          {
            "type": "null_expression",
            "named": true
          },
          {
            "type": "number_expression",
            "named": true
          },
          {
            "type": "option_dictionary_expression",
            "named": true
          },
          {
            "type": "parenthesized_expression",
            "named": true
          },
          {
            "type": "string_expression",
            "named": true
          },
          {
            "type": "unary_expression",
            "named": true
          },
          {
            "type": "update_expression",
            "named": true
          }
        ]
      }
    }
  },
  {
    "type": "import_statement",
    "named": true,
    "fields": {},
    "children": {
      "multiple": false,
      "required": true,
      "types": [
        {
          "type": "aliased_import",
          "named": true
        },
        {
          "type": "dotted_name",
          "named": true
        }
      ]
    }
  },
  {
    "type": "index_expression",
    "named": true,
    "fields": {},
    "children": {
      "multiple": true,
      "required": true,
      "types": [
        {
          "type": "array_expression",
          "named": true
        },
        {
          "type": "attribute_expression",
          "named": true
        },
        {
          "type": "binary_expression",
          "named": true
        },
        {
          "type": "class_creation_expression",
          "named": true
        },
        {
          "type": "dictionary_expression",
          "named": true
        },
        {
          "type": "identifier",
          "named": true
        },
        {
          "type": "index_expression",
          "named": true
        },
        {
          "type": "null_expression",
          "named": true
        },
        {
          "type": "number_expression",
          "named": true
        },
        {
          "type": "option_dictionary_expression",
          "named": true
        },
        {
          "type": "parenthesized_expression",
          "named": true
        },
        {
          "type": "string_expression",
          "named": true
        },
        {
          "type": "unary_expression",
          "named": true
        },
        {
          "type": "update_expression",
          "named": true
        }
      ]
    }
  },
  {
    "type": "option_dictionary_expression",
    "named": true,
    "fields": {},
    "children": {
      "multiple": true,
      "required": true,
      "types": [
        {
          "type": "array_expression",
          "named": true
        },
        {
          "type": "attribute_expression",
          "named": true
        },
        {
          "type": "binary_expression",
          "named": true
        },
        {
          "type": "class_creation_expression",
          "named": true
        },
        {
          "type": "dictionary_expression",
          "named": true
        },
        {
          "type": "identifier",
          "named": true
        },
        {
          "type": "index_expression",
          "named": true
        },
        {
          "type": "null_expression",
          "named": true
        },
        {
          "type": "number_expression",
          "named": true
        },
        {
          "type": "option_dictionary_expression",
          "named": true
        },
        {
          "type": "parenthesized_expression",
          "named": true
        },
        {
          "type": "string_expression",
          "named": true
        },
        {
          "type": "unary_expression",
          "named": true
        },
        {
          "type": "update_expression",
          "named": true
        }
      ]
    }
  },
  {
    "type": "parenthesized_expression",
    "named": true,
    "fields": {},
    "children": {
      "multiple": false,
      "required": true,
      "types": [
        {
          "type": "array_expression",
          "named": true
        },
        {
          "type": "attribute_expression",
          "named": true
        },
        {
          "type": "binary_expression",
          "named": true
        },
        {
          "type": "class_creation_expression",
          "named": true
        },
        {
          "type": "dictionary_expression",
          "named": true
        },
        {
          "type": "identifier",
          "named": true
        },
        {
          "type": "index_expression",
          "named": true
        },
        {
          "type": "null_expression",
          "named": true
        },
        {
          "type": "number_expression",
          "named": true
        },
        {
          "type": "option_dictionary_expression",
          "named": true
        },
        {
          "type": "parenthesized_expression",
          "named": true
        },
        {
          "type": "string_expression",
          "named": true
        },
        {
          "type": "unary_expression",
          "named": true
        },
        {
          "type": "update_expression",
          "named": true
        }
      ]
    }
  },
  {
    "type": "return_statement",
    "named": true,
    "fields": {},
    "children": {
      "multiple": false,
      "required": false,
      "types": [
        {
          "type": "array_expression",
          "named": true
        },
        {
          "type": "attribute_expression",
          "named": true
        },
        {
          "type": "binary_expression",
          "named": true
        },
        {
          "type": "class_creation_expression",
          "named": true
        },
        {
          "type": "dictionary_expression",
          "named": true
        },
        {
          "type": "identifier",
          "named": true
        },
        {
          "type": "index_expression",
          "named": true
        },
        {
          "type": "null_expression",
          "named": true
        },
        {
          "type": "number_expression",
          "named": true
        },
        {
          "type": "option_dictionary_expression",
          "named": true
        },
        {
          "type": "parenthesized_expression",
          "named": true
        },
        {
          "type": "string_expression",
          "named": true
        },
        {
          "type": "unary_expression",
          "named": true
        },
        {
          "type": "update_expression",
          "named": true
        }
      ]
    }
  },
  {
    "type": "source_file",
    "named": true,
    "fields": {},
    "children": {
      "multiple": true,
      "required": false,
      "types": [
        {
          "type": "array_expression",
          "named": true
        },
        {
          "type": "attribute_expression",
          "named": true
        },
        {
          "type": "binary_expression",
          "named": true
        },
        {
          "type": "class_creation_expression",
          "named": true
        },
        {
          "type": "class_declaration",
          "named": true
        },
        {
          "type": "dictionary_expression",
          "named": true
        },
        {
          "type": "for_statement",
          "named": true
        },
        {
          "type": "function_declaration",
          "named": true
        },
        {
          "type": "identifier",
          "named": true
        },
        {
          "type": "if_statement",
          "named": true
        },
        {
          "type": "import_statement",
          "named": true
        },
        {
          "type": "index_expression",
          "named": true
        },
        {
          "type": "null_expression",
          "named": true
        },
        {
          "type": "number_expression",
          "named": true
        },
        {
          "type": "option_dictionary_expression",
          "named": true
        },
        {
          "type": "parenthesized_expression",
          "named": true
        },
        {
          "type": "return_statement",
          "named": true
        },
        {
          "type": "string_expression",
          "named": true
        },
        {
          "type": "try_statement",
          "named": true
        },
        {
          "type": "unary_expression",
          "named": true
        },
        {
          "type": "update_expression",
          "named": true
        },
        {
          "type": "variable_assingment",
          "named": true
        },
        {
          "type": "variable_declaration",
          "named": true
        },
        {
          "type": "while_statement",
          "named": true
        }
      ]
    }
  },
  {
    "type": "string_expression",
    "named": true,
    "fields": {},
    "children": {
      "multiple": true,
      "required": false,
      "types": [
        {
          "type": "escape_sequence",
          "named": true
        }
      ]
    }
  },
  {
    "type": "try_statement",
    "named": true,
    "fields": {
      "body": {
        "multiple": false,
        "required": true,
        "types": [
          {
            "type": "block",
            "named": true
          }
        ]
      }
    },
    "children": {
      "multiple": true,
      "required": true,
      "types": [
        {
          "type": "catch_clause",
          "named": true
        },
        {
          "type": "finally_clause",
          "named": true
        }
      ]
    }
  },
  {
    "type": "unary_expression",
    "named": true,
    "fields": {
      "argument": {
        "multiple": false,
        "required": true,
        "types": [
          {
            "type": "array_expression",
            "named": true
          },
          {
            "type": "attribute_expression",
            "named": true
          },
          {
            "type": "binary_expression",
            "named": true
          },
          {
            "type": "class_creation_expression",
            "named": true
          },
          {
            "type": "dictionary_expression",
            "named": true
          },
          {
            "type": "identifier",
            "named": true
          },
          {
            "type": "index_expression",
            "named": true
          },
          {
            "type": "null_expression",
            "named": true
          },
          {
            "type": "number_expression",
            "named": true
          },
          {
            "type": "option_dictionary_expression",
            "named": true
          },
          {
            "type": "parenthesized_expression",
            "named": true
          },
          {
            "type": "string_expression",
            "named": true
          },
          {
            "type": "unary_expression",
            "named": true
          },
          {
            "type": "update_expression",
            "named": true
          }
        ]
      },
      "operator": {
        "multiple": false,
        "required": true,
        "types": [
          {
            "type": "!",
            "named": false
          },
          {
            "type": "+",
            "named": false
          },
          {
            "type": "-",
            "named": false
          },
          {
            "type": "~",
            "named": false
          }
        ]
      }
    }
  },
  {
    "type": "update_expression",
    "named": true,
    "fields": {
      "argument": {
        "multiple": false,
        "required": true,
        "types": [
          {
            "type": "array_expression",
            "named": true
          },
          {
            "type": "attribute_expression",
            "named": true
          },
          {
            "type": "binary_expression",
            "named": true
          },
          {
            "type": "class_creation_expression",
            "named": true
          },
          {
            "type": "dictionary_expression",
            "named": true
          },
          {
            "type": "identifier",
            "named": true
          },
          {
            "type": "index_expression",
            "named": true
          },
          {
            "type": "null_expression",
            "named": true
          },
          {
            "type": "number_expression",
            "named": true
          },
          {
            "type": "option_dictionary_expression",
            "named": true
          },
          {
            "type": "parenthesized_expression",
            "named": true
          },
          {
            "type": "string_expression",
            "named": true
          },
          {
            "type": "unary_expression",
            "named": true
          },
          {
            "type": "update_expression",
            "named": true
          }
        ]
      },
      "operator": {
        "multiple": false,
        "required": true,
        "types": [
          {
            "type": "++",
            "named": false
          },
          {
            "type": "--",
            "named": false
          }
        ]
      }
    }
  },
  {
    "type": "variable_assingment",
    "named": true,
    "fields": {},
    "children": {
      "multiple": true,
      "required": true,
      "types": [
        {
          "type": "array_expression",
          "named": true
        },
        {
          "type": "attribute_expression",
          "named": true
        },
        {
          "type": "binary_expression",
          "named": true
        },
        {
          "type": "class_creation_expression",
          "named": true
        },
        {
          "type": "dictionary_expression",
          "named": true
        },
        {
          "type": "identifier",
          "named": true
        },
        {
          "type": "index_expression",
          "named": true
        },
        {
          "type": "null_expression",
          "named": true
        },
        {
          "type": "number_expression",
          "named": true
        },
        {
          "type": "option_dictionary_expression",
          "named": true
        },
        {
          "type": "parenthesized_expression",
          "named": true
        },
        {
          "type": "string_expression",
          "named": true
        },
        {
          "type": "unary_expression",
          "named": true
        },
        {
          "type": "update_expression",
          "named": true
        }
      ]
    }
  },
  {
    "type": "variable_declaration",
    "named": true,
    "fields": {
      "value": {
        "multiple": false,
        "required": false,
        "types": [
          {
            "type": "array_expression",
            "named": true
          },
          {
            "type": "attribute_expression",
            "named": true
          },
          {
            "type": "binary_expression",
            "named": true
          },
          {
            "type": "class_creation_expression",
            "named": true
          },
          {
            "type": "dictionary_expression",
            "named": true
          },
          {
            "type": "identifier",
            "named": true
          },
          {
            "type": "index_expression",
            "named": true
          },
          {
            "type": "null_expression",
            "named": true
          },
          {
            "type": "number_expression",
            "named": true
          },
          {
            "type": "option_dictionary_expression",
            "named": true
          },
          {
            "type": "parenthesized_expression",
            "named": true
          },
          {
            "type": "string_expression",
            "named": true
          },
          {
            "type": "unary_expression",
            "named": true
          },
          {
            "type": "update_expression",
            "named": true
          }
        ]
      }
    },
    "children": {
      "multiple": false,
      "required": true,
      "types": [
        {
          "type": "identifier",
          "named": true
        }
      ]
    }
  },
  {
    "type": "while_statement",
    "named": true,
    "fields": {
      "body": {
        "multiple": false,
        "required": true,
        "types": [
          {
            "type": "block",
            "named": true
          }
        ]
      },
      "condition": {
        "multiple": false,
        "required": true,
        "types": [
          {
            "type": "array_expression",
            "named": true
          },
          {
            "type": "attribute_expression",
            "named": true
          },
          {
            "type": "binary_expression",
            "named": true
          },
          {
            "type": "class_creation_expression",
            "named": true
          },
          {
            "type": "dictionary_expression",
            "named": true
          },
          {
            "type": "identifier",
            "named": true
          },
          {
            "type": "index_expression",
            "named": true
          },
          {
            "type": "null_expression",
            "named": true
          },
          {
            "type": "number_expression",
            "named": true
          },
          {
            "type": "option_dictionary_expression",
            "named": true
          },
          {
            "type": "parenthesized_expression",
            "named": true
          },
          {
            "type": "string_expression",
            "named": true
          },
          {
            "type": "unary_expression",
            "named": true
          },
          {
            "type": "update_expression",
            "named": true
          }
        ]
      }
    }
  },
  {
    "type": "!",
    "named": false
  },
  {
    "type": "!=",
    "named": false
  },
  {
    "type": "\"",
    "named": false
  },
  {
    "type": "%",
    "named": false
  },
  {
    "type": "&",
    "named": false
  },
  {
    "type": "&&",
    "named": false
  },
  {
    "type": "(",
    "named": false
  },
  {
    "type": "()",
    "named": false
  },
  {
    "type": ")",
    "named": false
  },
  {
    "type": "*",
    "named": false
  },
  {
    "type": "+",
    "named": false
  },
  {
    "type": "++",
    "named": false
  },
  {
    "type": ",",
    "named": false
  },
  {
    "type": "-",
    "named": false
  },
  {
    "type": "--",
    "named": false
  },
  {
    "type": ".",
    "named": false
  },
  {
    "type": "/",
    "named": false
  },
  {
    "type": ":",
    "named": false
  },
  {
    "type": ";",
    "named": false
  },
  {
    "type": "<",
    "named": false
  },
  {
    "type": "<<",
    "named": false
  },
  {
    "type": "<=",
    "named": false
  },
  {
    "type": "=",
    "named": false
  },
  {
    "type": "==",
    "named": false
  },
  {
    "type": "=>",
    "named": false
  },
  {
    "type": ">",
    "named": false
  },
  {
    "type": ">=",
    "named": false
  },
  {
    "type": ">>",
    "named": false
  },
  {
    "type": "Boolean",
    "named": false
  },
  {
    "type": "Number",
    "named": false
  },
  {
    "type": "String",
    "named": false
  },
  {
    "type": "[",
    "named": false
  },
  {
    "type": "]",
    "named": false
  },
  {
    "type": "^",
    "named": false
  },
  {
    "type": "as",
    "named": false
  },
  {
    "type": "catch",
    "named": false
  },
  {
    "type": "class",
    "named": false
  },
  {
    "type": "comment",
    "named": true
  },
  {
    "type": "else",
    "named": false
  },
  {
    "type": "else if",
    "named": false
  },
  {
    "type": "escape_sequence",
    "named": true
  },
  {
    "type": "extends",
    "named": false
  },
  {
    "type": "finally",
    "named": false
  },
  {
    "type": "for",
    "named": false
  },
  {
    "type": "function",
    "named": false
  },
  {
    "type": "identifier",
    "named": true
  },
  {
    "type": "if",
    "named": false
  },
  {
    "type": "import",
    "named": false
  },
  {
    "type": "instanceof",
    "named": false
  },
  {
    "type": "new",
    "named": false
  },
  {
    "type": "null_expression",
    "named": true
  },
  {
    "type": "number_expression",
    "named": true
  },
  {
    "type": "private",
    "named": false
  },
  {
    "type": "protected",
    "named": false
  },
  {
    "type": "public",
    "named": false
  },
  {
    "type": "return",
    "named": false
  },
  {
    "type": "try",
    "named": false
  },
  {
    "type": "using",
    "named": false
  },
  {
    "type": "var",
    "named": false
  },
  {
    "type": "while",
    "named": false
  },
  {
    "type": "{",
    "named": false
  },
  {
    "type": "|",
    "named": false
  },
  {
    "type": "||",
    "named": false
  },
  {
    "type": "}",
    "named": false
  },
  {
    "type": "~",
    "named": false
  }
]